%!PS-Adobe-3.0
%%Creator: PCBNEW
%%CreationDate: Mon Mar 28 13:24:39 2022
%%Title: ()
%%Pages: 1
%%PageOrder: Ascend
%%BoundingBox: 0 0 596 842
%%DocumentMedia: A4 595 842 0 () ()
%%Orientation: Landscape
%%EndComments
%%BeginProlog
/line { newpath moveto lineto stroke } bind def
/cir0 { newpath 0 360 arc stroke } bind def
/cir1 { newpath 0 360 arc gsave fill grestore stroke } bind def
/cir2 { newpath 0 360 arc gsave fill grestore stroke } bind def
/arc0 { newpath arc stroke } bind def
/arc1 { newpath 4 index 4 index moveto arc closepath gsave fill
    grestore stroke } bind def
/arc2 { newpath 4 index 4 index moveto arc closepath gsave fill
    grestore stroke } bind def
/poly0 { stroke } bind def
/poly1 { closepath gsave fill grestore stroke } bind def
/poly2 { closepath gsave fill grestore stroke } bind def
/rect0 { rectstroke } bind def
/rect1 { rectfill } bind def
/rect2 { rectfill } bind def
/linemode0 { 0 setlinecap 0 setlinejoin 0 setlinewidth } bind def
/linemode1 { 1 setlinecap 1 setlinejoin } bind def
/dashedline { [200] 100 setdash } bind def
/solidline { [] 0 setdash } bind def
/phantomshow { moveto
    /KicadFont findfont 0.000001 scalefont setfont
    show } bind def
/textshow { gsave
    findfont exch scalefont setfont concat 1 scale 0 0 moveto show
    } bind def
/reencodefont {
  findfont dup length dict begin
  { 1 index /FID ne
    { def }
    { pop pop } ifelse
  } forall
  /Encoding ISOLatin1Encoding def
  currentdict
  end } bind def
/KicadFont /Helvetica reencodefont definefont pop
/KicadFont-Bold /Helvetica-Bold reencodefont definefont pop
/KicadFont-Oblique /Helvetica-Oblique reencodefont definefont pop
/KicadFont-BoldOblique /Helvetica-BoldOblique reencodefont definefont pop
%%EndProlog
%%Page: 1 1
%%BeginPageSetup
gsave
0.0072 0.0072 scale
linemode1
82680 0 translate 90 rotate
217.222 setlinewidth
%%EndPageSetup
0 0 0 setrgbcolor
54.3056 setlinewidth
newpath
88333.1 35067.7 moveto
28596.9 35067.7 lineto
stroke
0 0 0 setrgbcolor
newpath
28596.9 35067.7 moveto
28596.9 80684.3 lineto
stroke
0 0 0 setrgbcolor
newpath
88333.1 80684.3 moveto
88333.1 35067.7 lineto
stroke
0 0 0 setrgbcolor
newpath
28596.9 80684.3 moveto
88333.1 80684.3 lineto
stroke
217.222 setlinewidth
21.7222 setlinewidth
newpath
29371.1 79922.8 moveto
29588.3 79705.5 lineto
stroke
newpath
29588.3 79922.8 moveto
29371.1 79705.5 lineto
stroke
newpath
29371.1 77164 moveto
29588.3 76946.8 lineto
stroke
newpath
29588.3 77164 moveto
29371.1 76946.8 lineto
stroke
newpath
29371.1 74405.3 moveto
29588.3 74188.1 lineto
stroke
newpath
29588.3 74405.3 moveto
29371.1 74188.1 lineto
stroke
newpath
29371.1 71646.6 moveto
29588.3 71429.4 lineto
stroke
newpath
29588.3 71646.6 moveto
29371.1 71429.4 lineto
stroke
newpath
29371.1 68887.9 moveto
29588.3 68670.6 lineto
stroke
newpath
29588.3 68887.9 moveto
29371.1 68670.6 lineto
stroke
newpath
29371.1 66129.1 moveto
29588.3 65911.9 lineto
stroke
newpath
29588.3 66129.1 moveto
29371.1 65911.9 lineto
stroke
newpath
29371.1 63370.4 moveto
29588.3 63153.2 lineto
stroke
newpath
29588.3 63370.4 moveto
29371.1 63153.2 lineto
stroke
newpath
29371.1 60611.7 moveto
29588.3 60394.5 lineto
stroke
newpath
29588.3 60611.7 moveto
29371.1 60394.5 lineto
stroke
newpath
29371.1 57853 moveto
29588.3 57635.8 lineto
stroke
newpath
29588.3 57853 moveto
29371.1 57635.8 lineto
stroke
newpath
29371.1 55094.3 moveto
29588.3 54877 lineto
stroke
newpath
29588.3 55094.3 moveto
29371.1 54877 lineto
stroke
newpath
29371.1 52335.5 moveto
29588.3 52118.3 lineto
stroke
newpath
29588.3 52335.5 moveto
29371.1 52118.3 lineto
stroke
newpath
29371.1 49576.8 moveto
29588.3 49359.6 lineto
stroke
newpath
29588.3 49576.8 moveto
29371.1 49359.6 lineto
stroke
newpath
29371.1 46818.1 moveto
29588.3 46600.9 lineto
stroke
newpath
29588.3 46818.1 moveto
29371.1 46600.9 lineto
stroke
newpath
29371.1 44059.4 moveto
29588.3 43842.1 lineto
stroke
newpath
29588.3 44059.4 moveto
29371.1 43842.1 lineto
stroke
newpath
29371.1 41300.6 moveto
29588.3 41083.4 lineto
stroke
newpath
29588.3 41300.6 moveto
29371.1 41083.4 lineto
stroke
newpath
29371.1 38541.9 moveto
29588.3 38324.7 lineto
stroke
newpath
29588.3 38541.9 moveto
29371.1 38324.7 lineto
stroke
newpath
29371.1 36059.1 moveto
29588.3 35841.8 lineto
stroke
newpath
29588.3 36059.1 moveto
29371.1 35841.8 lineto
stroke
newpath
32129.8 79922.8 moveto
32347.1 79705.5 lineto
stroke
newpath
32347.1 79922.8 moveto
32129.8 79705.5 lineto
stroke
newpath
32129.8 71646.6 moveto
32347.1 71429.4 lineto
stroke
newpath
32347.1 71646.6 moveto
32129.8 71429.4 lineto
stroke
newpath
32129.8 68887.9 moveto
32347.1 68670.6 lineto
stroke
newpath
32347.1 68887.9 moveto
32129.8 68670.6 lineto
stroke
newpath
32129.8 66129.1 moveto
32347.1 65911.9 lineto
stroke
newpath
32347.1 66129.1 moveto
32129.8 65911.9 lineto
stroke
newpath
32129.8 63370.4 moveto
32347.1 63153.2 lineto
stroke
newpath
32347.1 63370.4 moveto
32129.8 63153.2 lineto
stroke
newpath
32129.8 60611.7 moveto
32347.1 60394.5 lineto
stroke
newpath
32347.1 60611.7 moveto
32129.8 60394.5 lineto
stroke
newpath
32129.8 57853 moveto
32347.1 57635.8 lineto
stroke
newpath
32347.1 57853 moveto
32129.8 57635.8 lineto
stroke
newpath
32129.8 55094.3 moveto
32347.1 54877 lineto
stroke
newpath
32347.1 55094.3 moveto
32129.8 54877 lineto
stroke
newpath
32129.8 49576.8 moveto
32347.1 49359.6 lineto
stroke
newpath
32347.1 49576.8 moveto
32129.8 49359.6 lineto
stroke
newpath
32129.8 46818.1 moveto
32347.1 46600.9 lineto
stroke
newpath
32347.1 46818.1 moveto
32129.8 46600.9 lineto
stroke
newpath
32129.8 44059.4 moveto
32347.1 43842.1 lineto
stroke
newpath
32347.1 44059.4 moveto
32129.8 43842.1 lineto
stroke
newpath
32129.8 36059.1 moveto
32347.1 35841.8 lineto
stroke
newpath
32347.1 36059.1 moveto
32129.8 35841.8 lineto
stroke
newpath
32405.7 51673.4 moveto
32622.9 51456.2 lineto
stroke
newpath
32622.9 51673.4 moveto
32405.7 51456.2 lineto
stroke
newpath
34598.2 43783.5 moveto
34815.5 43566.3 lineto
stroke
newpath
34815.5 43783.5 moveto
34598.2 43566.3 lineto
stroke
newpath
34888.6 79922.8 moveto
35105.8 79705.5 lineto
stroke
newpath
35105.8 79922.8 moveto
34888.6 79705.5 lineto
stroke
newpath
34888.6 60611.7 moveto
35105.8 60394.5 lineto
stroke
newpath
35105.8 60611.7 moveto
34888.6 60394.5 lineto
stroke
newpath
34888.6 57853 moveto
35105.8 57635.8 lineto
stroke
newpath
35105.8 57853 moveto
34888.6 57635.8 lineto
stroke
newpath
34888.6 55094.3 moveto
35105.8 54877 lineto
stroke
newpath
35105.8 55094.3 moveto
34888.6 54877 lineto
stroke
newpath
34888.6 36059.1 moveto
35105.8 35841.8 lineto
stroke
newpath
35105.8 36059.1 moveto
34888.6 35841.8 lineto
stroke
newpath
35227.1 49529.2 moveto
35444.4 49311.9 lineto
stroke
newpath
35444.4 49529.2 moveto
35227.1 49311.9 lineto
stroke
newpath
37647.3 79922.8 moveto
37864.5 79705.5 lineto
stroke
newpath
37864.5 79922.8 moveto
37647.3 79705.5 lineto
stroke
newpath
37647.3 57853 moveto
37864.5 57635.8 lineto
stroke
newpath
37864.5 57853 moveto
37647.3 57635.8 lineto
stroke
newpath
37647.3 55480.5 moveto
37864.5 55263.2 lineto
stroke
newpath
37864.5 55480.5 moveto
37647.3 55263.2 lineto
stroke
newpath
37647.3 36059.1 moveto
37864.5 35841.8 lineto
stroke
newpath
37864.5 36059.1 moveto
37647.3 35841.8 lineto
stroke
newpath
37950.9 49632 moveto
38168.1 49414.8 lineto
stroke
newpath
38168.1 49632 moveto
37950.9 49414.8 lineto
stroke
newpath
37978.3 43562.8 moveto
38195.6 43345.6 lineto
stroke
newpath
38195.6 43562.8 moveto
37978.3 43345.6 lineto
stroke
newpath
40406 79922.8 moveto
40623.2 79705.5 lineto
stroke
newpath
40623.2 79922.8 moveto
40406 79705.5 lineto
stroke
newpath
40406 66129.1 moveto
40623.2 65911.9 lineto
stroke
newpath
40623.2 66129.1 moveto
40406 65911.9 lineto
stroke
newpath
40406 63370.4 moveto
40623.2 63153.2 lineto
stroke
newpath
40623.2 63370.4 moveto
40406 63153.2 lineto
stroke
newpath
40406 57853 moveto
40623.2 57635.8 lineto
stroke
newpath
40623.2 57853 moveto
40406 57635.8 lineto
stroke
newpath
40406 55480.5 moveto
40623.2 55263.2 lineto
stroke
newpath
40623.2 55480.5 moveto
40406 55263.2 lineto
stroke
newpath
40406 49576.8 moveto
40623.2 49359.6 lineto
stroke
newpath
40623.2 49576.8 moveto
40406 49359.6 lineto
stroke
newpath
40406 36059.1 moveto
40623.2 35841.8 lineto
stroke
newpath
40623.2 36059.1 moveto
40406 35841.8 lineto
stroke
newpath
43054.4 49687.2 moveto
43271.6 49469.9 lineto
stroke
newpath
43271.6 49687.2 moveto
43054.4 49469.9 lineto
stroke
newpath
43164.7 79922.8 moveto
43382 79705.5 lineto
stroke
newpath
43382 79922.8 moveto
43164.7 79705.5 lineto
stroke
newpath
43164.7 60611.7 moveto
43382 60394.5 lineto
stroke
newpath
43382 60611.7 moveto
43164.7 60394.5 lineto
stroke
newpath
43164.7 57853 moveto
43382 57635.8 lineto
stroke
newpath
43382 57853 moveto
43164.7 57635.8 lineto
stroke
newpath
43164.7 55480.5 moveto
43382 55263.2 lineto
stroke
newpath
43382 55480.5 moveto
43164.7 55263.2 lineto
stroke
newpath
43164.7 36059.1 moveto
43382 35841.8 lineto
stroke
newpath
43382 36059.1 moveto
43164.7 35841.8 lineto
stroke
newpath
45923.5 79922.8 moveto
46140.7 79705.5 lineto
stroke
newpath
46140.7 79922.8 moveto
45923.5 79705.5 lineto
stroke
newpath
45923.5 60611.7 moveto
46140.7 60394.5 lineto
stroke
newpath
46140.7 60611.7 moveto
45923.5 60394.5 lineto
stroke
newpath
45923.5 57853 moveto
46140.7 57635.8 lineto
stroke
newpath
46140.7 57853 moveto
45923.5 57635.8 lineto
stroke
newpath
45923.5 55480.5 moveto
46140.7 55263.2 lineto
stroke
newpath
46140.7 55480.5 moveto
45923.5 55263.2 lineto
stroke
newpath
45923.5 36059.1 moveto
46140.7 35841.8 lineto
stroke
newpath
46140.7 36059.1 moveto
45923.5 35841.8 lineto
stroke
newpath
48682.2 79922.8 moveto
48899.4 79705.5 lineto
stroke
newpath
48899.4 79922.8 moveto
48682.2 79705.5 lineto
stroke
newpath
48682.2 68887.9 moveto
48899.4 68670.6 lineto
stroke
newpath
48899.4 68887.9 moveto
48682.2 68670.6 lineto
stroke
newpath
48682.2 60611.7 moveto
48899.4 60394.5 lineto
stroke
newpath
48899.4 60611.7 moveto
48682.2 60394.5 lineto
stroke
newpath
48682.2 57853 moveto
48899.4 57635.8 lineto
stroke
newpath
48899.4 57853 moveto
48682.2 57635.8 lineto
stroke
newpath
48682.2 55480.5 moveto
48899.4 55263.2 lineto
stroke
newpath
48899.4 55480.5 moveto
48682.2 55263.2 lineto
stroke
newpath
48682.2 36059.1 moveto
48899.4 35841.8 lineto
stroke
newpath
48899.4 36059.1 moveto
48682.2 35841.8 lineto
stroke
newpath
51440.9 79922.8 moveto
51658.1 79705.5 lineto
stroke
newpath
51658.1 79922.8 moveto
51440.9 79705.5 lineto
stroke
newpath
51440.9 60611.7 moveto
51658.1 60394.5 lineto
stroke
newpath
51658.1 60611.7 moveto
51440.9 60394.5 lineto
stroke
newpath
51440.9 57853 moveto
51658.1 57635.8 lineto
stroke
newpath
51658.1 57853 moveto
51440.9 57635.8 lineto
stroke
newpath
51440.9 55480.5 moveto
51658.1 55263.2 lineto
stroke
newpath
51658.1 55480.5 moveto
51440.9 55263.2 lineto
stroke
newpath
51440.9 36059.1 moveto
51658.1 35841.8 lineto
stroke
newpath
51658.1 36059.1 moveto
51440.9 35841.8 lineto
stroke
newpath
54199.6 79922.8 moveto
54416.8 79705.5 lineto
stroke
newpath
54416.8 79922.8 moveto
54199.6 79705.5 lineto
stroke
newpath
54199.6 60611.7 moveto
54416.8 60394.5 lineto
stroke
newpath
54416.8 60611.7 moveto
54199.6 60394.5 lineto
stroke
newpath
54199.6 57853 moveto
54416.8 57635.8 lineto
stroke
newpath
54416.8 57853 moveto
54199.6 57635.8 lineto
stroke
newpath
54199.6 55480.5 moveto
54416.8 55263.2 lineto
stroke
newpath
54416.8 55480.5 moveto
54199.6 55263.2 lineto
stroke
newpath
54199.6 36059.1 moveto
54416.8 35841.8 lineto
stroke
newpath
54416.8 36059.1 moveto
54199.6 35841.8 lineto
stroke
newpath
54585.8 71094.8 moveto
54803.1 70877.6 lineto
stroke
newpath
54803.1 71094.8 moveto
54585.8 70877.6 lineto
stroke
newpath
56461.8 46100.8 moveto
56679 45883.6 lineto
stroke
newpath
56679 46100.8 moveto
56461.8 45883.6 lineto
stroke
newpath
56958.3 79922.8 moveto
57175.6 79705.5 lineto
stroke
newpath
57175.6 79922.8 moveto
56958.3 79705.5 lineto
stroke
newpath
56958.3 63370.4 moveto
57175.6 63153.2 lineto
stroke
newpath
57175.6 63370.4 moveto
56958.3 63153.2 lineto
stroke
newpath
56958.3 60611.7 moveto
57175.6 60394.5 lineto
stroke
newpath
57175.6 60611.7 moveto
56958.3 60394.5 lineto
stroke
newpath
56958.3 57853 moveto
57175.6 57635.8 lineto
stroke
newpath
57175.6 57853 moveto
56958.3 57635.8 lineto
stroke
newpath
56958.3 55094.3 moveto
57175.6 54877 lineto
stroke
newpath
57175.6 55094.3 moveto
56958.3 54877 lineto
stroke
newpath
56958.3 49576.8 moveto
57175.6 49359.6 lineto
stroke
newpath
57175.6 49576.8 moveto
56958.3 49359.6 lineto
stroke
newpath
56958.3 36059.1 moveto
57175.6 35841.8 lineto
stroke
newpath
57175.6 36059.1 moveto
56958.3 35841.8 lineto
stroke
newpath
57620.4 44059.4 moveto
57837.7 43842.1 lineto
stroke
newpath
57837.7 44059.4 moveto
57620.4 43842.1 lineto
stroke
newpath
57841.1 71205.2 moveto
58058.4 70988 lineto
stroke
newpath
58058.4 71205.2 moveto
57841.1 70988 lineto
stroke
newpath
58006.7 51176.9 moveto
58223.9 50959.6 lineto
stroke
newpath
58223.9 51176.9 moveto
58006.7 50959.6 lineto
stroke
newpath
59220.5 46100.8 moveto
59437.7 45883.6 lineto
stroke
newpath
59437.7 46100.8 moveto
59220.5 45883.6 lineto
stroke
newpath
59274.4 49553.8 moveto
59491.7 49336.5 lineto
stroke
newpath
59491.7 49553.8 moveto
59274.4 49336.5 lineto
stroke
newpath
59717.1 79922.8 moveto
59934.3 79705.5 lineto
stroke
newpath
59934.3 79922.8 moveto
59717.1 79705.5 lineto
stroke
newpath
59717.1 63370.4 moveto
59934.3 63153.2 lineto
stroke
newpath
59934.3 63370.4 moveto
59717.1 63153.2 lineto
stroke
newpath
59717.1 60611.7 moveto
59934.3 60394.5 lineto
stroke
newpath
59934.3 60611.7 moveto
59717.1 60394.5 lineto
stroke
newpath
59717.1 57853 moveto
59934.3 57635.8 lineto
stroke
newpath
59934.3 57853 moveto
59717.1 57635.8 lineto
stroke
newpath
59717.1 55094.3 moveto
59934.3 54877 lineto
stroke
newpath
59934.3 55094.3 moveto
59717.1 54877 lineto
stroke
newpath
59717.1 44059.4 moveto
59934.3 43842.1 lineto
stroke
newpath
59934.3 44059.4 moveto
59717.1 43842.1 lineto
stroke
newpath
59717.1 36059.1 moveto
59934.3 35841.8 lineto
stroke
newpath
59934.3 36059.1 moveto
59717.1 35841.8 lineto
stroke
newpath
60331.6 52894.9 moveto
60548.9 52677.7 lineto
stroke
newpath
60548.9 52894.9 moveto
60331.6 52677.7 lineto
stroke
newpath
61979.2 46100.8 moveto
62196.4 45883.6 lineto
stroke
newpath
62196.4 46100.8 moveto
61979.2 45883.6 lineto
stroke
newpath
62475.8 79922.8 moveto
62693 79705.5 lineto
stroke
newpath
62693 79922.8 moveto
62475.8 79705.5 lineto
stroke
newpath
62475.8 63370.4 moveto
62693 63153.2 lineto
stroke
newpath
62693 63370.4 moveto
62475.8 63153.2 lineto
stroke
newpath
62475.8 60611.7 moveto
62693 60394.5 lineto
stroke
newpath
62693 60611.7 moveto
62475.8 60394.5 lineto
stroke
newpath
62475.8 57853 moveto
62693 57635.8 lineto
stroke
newpath
62693 57853 moveto
62475.8 57635.8 lineto
stroke
newpath
62475.8 55094.3 moveto
62693 54877 lineto
stroke
newpath
62693 55094.3 moveto
62475.8 54877 lineto
stroke
newpath
62475.8 52335.5 moveto
62693 52118.3 lineto
stroke
newpath
62693 52335.5 moveto
62475.8 52118.3 lineto
stroke
newpath
62475.8 49576.8 moveto
62693 49359.6 lineto
stroke
newpath
62693 49576.8 moveto
62475.8 49359.6 lineto
stroke
newpath
62475.8 44059.4 moveto
62693 43842.1 lineto
stroke
newpath
62693 44059.4 moveto
62475.8 43842.1 lineto
stroke
newpath
62475.8 36059.1 moveto
62693 35841.8 lineto
stroke
newpath
62693 36059.1 moveto
62475.8 35841.8 lineto
stroke
newpath
65234.5 79922.8 moveto
65451.7 79705.5 lineto
stroke
newpath
65451.7 79922.8 moveto
65234.5 79705.5 lineto
stroke
newpath
65234.5 63370.4 moveto
65451.7 63153.2 lineto
stroke
newpath
65451.7 63370.4 moveto
65234.5 63153.2 lineto
stroke
newpath
65234.5 60611.7 moveto
65451.7 60394.5 lineto
stroke
newpath
65451.7 60611.7 moveto
65234.5 60394.5 lineto
stroke
newpath
65234.5 57853 moveto
65451.7 57635.8 lineto
stroke
newpath
65451.7 57853 moveto
65234.5 57635.8 lineto
stroke
newpath
65234.5 55094.3 moveto
65451.7 54877 lineto
stroke
newpath
65451.7 55094.3 moveto
65234.5 54877 lineto
stroke
newpath
65234.5 52335.5 moveto
65451.7 52118.3 lineto
stroke
newpath
65451.7 52335.5 moveto
65234.5 52118.3 lineto
stroke
newpath
65234.5 49576.8 moveto
65451.7 49359.6 lineto
stroke
newpath
65451.7 49576.8 moveto
65234.5 49359.6 lineto
stroke
newpath
65234.5 36059.1 moveto
65451.7 35841.8 lineto
stroke
newpath
65451.7 36059.1 moveto
65234.5 35841.8 lineto
stroke
newpath
67993.2 79922.8 moveto
68210.5 79705.5 lineto
stroke
newpath
68210.5 79922.8 moveto
67993.2 79705.5 lineto
stroke
newpath
67993.2 66129.1 moveto
68210.5 65911.9 lineto
stroke
newpath
68210.5 66129.1 moveto
67993.2 65911.9 lineto
stroke
newpath
67993.2 63370.4 moveto
68210.5 63153.2 lineto
stroke
newpath
68210.5 63370.4 moveto
67993.2 63153.2 lineto
stroke
newpath
67993.2 60611.7 moveto
68210.5 60394.5 lineto
stroke
newpath
68210.5 60611.7 moveto
67993.2 60394.5 lineto
stroke
newpath
67993.2 57853 moveto
68210.5 57635.8 lineto
stroke
newpath
68210.5 57853 moveto
67993.2 57635.8 lineto
stroke
newpath
67993.2 55094.3 moveto
68210.5 54877 lineto
stroke
newpath
68210.5 55094.3 moveto
67993.2 54877 lineto
stroke
newpath
67993.2 52335.5 moveto
68210.5 52118.3 lineto
stroke
newpath
68210.5 52335.5 moveto
67993.2 52118.3 lineto
stroke
newpath
67993.2 49576.8 moveto
68210.5 49359.6 lineto
stroke
newpath
68210.5 49576.8 moveto
67993.2 49359.6 lineto
stroke
newpath
67993.2 36059.1 moveto
68210.5 35841.8 lineto
stroke
newpath
68210.5 36059.1 moveto
67993.2 35841.8 lineto
stroke
newpath
70752 79922.8 moveto
70969.2 79705.5 lineto
stroke
newpath
70969.2 79922.8 moveto
70752 79705.5 lineto
stroke
newpath
70752 66129.1 moveto
70969.2 65911.9 lineto
stroke
newpath
70969.2 66129.1 moveto
70752 65911.9 lineto
stroke
newpath
70752 63370.4 moveto
70969.2 63153.2 lineto
stroke
newpath
70969.2 63370.4 moveto
70752 63153.2 lineto
stroke
newpath
70752 60611.7 moveto
70969.2 60394.5 lineto
stroke
newpath
70969.2 60611.7 moveto
70752 60394.5 lineto
stroke
newpath
70752 57853 moveto
70969.2 57635.8 lineto
stroke
newpath
70969.2 57853 moveto
70752 57635.8 lineto
stroke
newpath
70752 55094.3 moveto
70969.2 54877 lineto
stroke
newpath
70969.2 55094.3 moveto
70752 54877 lineto
stroke
newpath
70752 52335.5 moveto
70969.2 52118.3 lineto
stroke
newpath
70969.2 52335.5 moveto
70752 52118.3 lineto
stroke
newpath
70752 49576.8 moveto
70969.2 49359.6 lineto
stroke
newpath
70969.2 49576.8 moveto
70752 49359.6 lineto
stroke
newpath
70752 36059.1 moveto
70969.2 35841.8 lineto
stroke
newpath
70969.2 36059.1 moveto
70752 35841.8 lineto
stroke
newpath
73510.7 79922.8 moveto
73727.9 79705.5 lineto
stroke
newpath
73727.9 79922.8 moveto
73510.7 79705.5 lineto
stroke
newpath
73510.7 66129.1 moveto
73727.9 65911.9 lineto
stroke
newpath
73727.9 66129.1 moveto
73510.7 65911.9 lineto
stroke
newpath
73510.7 63370.4 moveto
73727.9 63153.2 lineto
stroke
newpath
73727.9 63370.4 moveto
73510.7 63153.2 lineto
stroke
newpath
73510.7 60611.7 moveto
73727.9 60394.5 lineto
stroke
newpath
73727.9 60611.7 moveto
73510.7 60394.5 lineto
stroke
newpath
73510.7 57853 moveto
73727.9 57635.8 lineto
stroke
newpath
73727.9 57853 moveto
73510.7 57635.8 lineto
stroke
newpath
73510.7 55094.3 moveto
73727.9 54877 lineto
stroke
newpath
73727.9 55094.3 moveto
73510.7 54877 lineto
stroke
newpath
73510.7 52335.5 moveto
73727.9 52118.3 lineto
stroke
newpath
73727.9 52335.5 moveto
73510.7 52118.3 lineto
stroke
newpath
73510.7 49576.8 moveto
73727.9 49359.6 lineto
stroke
newpath
73727.9 49576.8 moveto
73510.7 49359.6 lineto
stroke
newpath
73510.7 36059.1 moveto
73727.9 35841.8 lineto
stroke
newpath
73727.9 36059.1 moveto
73510.7 35841.8 lineto
stroke
newpath
76269.4 79922.8 moveto
76486.6 79705.5 lineto
stroke
newpath
76486.6 79922.8 moveto
76269.4 79705.5 lineto
stroke
newpath
76269.4 66129.1 moveto
76486.6 65911.9 lineto
stroke
newpath
76486.6 66129.1 moveto
76269.4 65911.9 lineto
stroke
newpath
76269.4 63370.4 moveto
76486.6 63153.2 lineto
stroke
newpath
76486.6 63370.4 moveto
76269.4 63153.2 lineto
stroke
newpath
76269.4 60611.7 moveto
76486.6 60394.5 lineto
stroke
newpath
76486.6 60611.7 moveto
76269.4 60394.5 lineto
stroke
newpath
76269.4 57853 moveto
76486.6 57635.8 lineto
stroke
newpath
76486.6 57853 moveto
76269.4 57635.8 lineto
stroke
newpath
76269.4 55094.3 moveto
76486.6 54877 lineto
stroke
newpath
76486.6 55094.3 moveto
76269.4 54877 lineto
stroke
newpath
76269.4 52335.5 moveto
76486.6 52118.3 lineto
stroke
newpath
76486.6 52335.5 moveto
76269.4 52118.3 lineto
stroke
newpath
76269.4 49576.8 moveto
76486.6 49359.6 lineto
stroke
newpath
76486.6 49576.8 moveto
76269.4 49359.6 lineto
stroke
newpath
76269.4 44059.4 moveto
76486.6 43842.1 lineto
stroke
newpath
76486.6 44059.4 moveto
76269.4 43842.1 lineto
stroke
newpath
76269.4 36059.1 moveto
76486.6 35841.8 lineto
stroke
newpath
76486.6 36059.1 moveto
76269.4 35841.8 lineto
stroke
newpath
79028.1 79922.8 moveto
79245.4 79705.5 lineto
stroke
newpath
79245.4 79922.8 moveto
79028.1 79705.5 lineto
stroke
newpath
79028.1 66129.1 moveto
79245.4 65911.9 lineto
stroke
newpath
79245.4 66129.1 moveto
79028.1 65911.9 lineto
stroke
newpath
79028.1 63370.4 moveto
79245.4 63153.2 lineto
stroke
newpath
79245.4 63370.4 moveto
79028.1 63153.2 lineto
stroke
newpath
79028.1 60611.7 moveto
79245.4 60394.5 lineto
stroke
newpath
79245.4 60611.7 moveto
79028.1 60394.5 lineto
stroke
newpath
79028.1 57853 moveto
79245.4 57635.8 lineto
stroke
newpath
79245.4 57853 moveto
79028.1 57635.8 lineto
stroke
newpath
79028.1 55094.3 moveto
79245.4 54877 lineto
stroke
newpath
79245.4 55094.3 moveto
79028.1 54877 lineto
stroke
newpath
79028.1 52335.5 moveto
79245.4 52118.3 lineto
stroke
newpath
79245.4 52335.5 moveto
79028.1 52118.3 lineto
stroke
newpath
79028.1 49576.8 moveto
79245.4 49359.6 lineto
stroke
newpath
79245.4 49576.8 moveto
79028.1 49359.6 lineto
stroke
newpath
79028.1 46818.1 moveto
79245.4 46600.9 lineto
stroke
newpath
79245.4 46818.1 moveto
79028.1 46600.9 lineto
stroke
newpath
79028.1 36059.1 moveto
79245.4 35841.8 lineto
stroke
newpath
79245.4 36059.1 moveto
79028.1 35841.8 lineto
stroke
newpath
81786.9 79922.8 moveto
82004.1 79705.5 lineto
stroke
newpath
82004.1 79922.8 moveto
81786.9 79705.5 lineto
stroke
newpath
81786.9 68887.9 moveto
82004.1 68670.6 lineto
stroke
newpath
82004.1 68887.9 moveto
81786.9 68670.6 lineto
stroke
newpath
81786.9 66129.1 moveto
82004.1 65911.9 lineto
stroke
newpath
82004.1 66129.1 moveto
81786.9 65911.9 lineto
stroke
newpath
81786.9 63370.4 moveto
82004.1 63153.2 lineto
stroke
newpath
82004.1 63370.4 moveto
81786.9 63153.2 lineto
stroke
newpath
81786.9 60611.7 moveto
82004.1 60394.5 lineto
stroke
newpath
82004.1 60611.7 moveto
81786.9 60394.5 lineto
stroke
newpath
81786.9 57853 moveto
82004.1 57635.8 lineto
stroke
newpath
82004.1 57853 moveto
81786.9 57635.8 lineto
stroke
newpath
81786.9 55094.3 moveto
82004.1 54877 lineto
stroke
newpath
82004.1 55094.3 moveto
81786.9 54877 lineto
stroke
newpath
81786.9 52335.5 moveto
82004.1 52118.3 lineto
stroke
newpath
82004.1 52335.5 moveto
81786.9 52118.3 lineto
stroke
newpath
81786.9 49576.8 moveto
82004.1 49359.6 lineto
stroke
newpath
82004.1 49576.8 moveto
81786.9 49359.6 lineto
stroke
newpath
81786.9 46818.1 moveto
82004.1 46600.9 lineto
stroke
newpath
82004.1 46818.1 moveto
81786.9 46600.9 lineto
stroke
newpath
81786.9 44059.4 moveto
82004.1 43842.1 lineto
stroke
newpath
82004.1 44059.4 moveto
81786.9 43842.1 lineto
stroke
newpath
81786.9 36059.1 moveto
82004.1 35841.8 lineto
stroke
newpath
82004.1 36059.1 moveto
81786.9 35841.8 lineto
stroke
newpath
84545.6 79922.8 moveto
84762.8 79705.5 lineto
stroke
newpath
84762.8 79922.8 moveto
84545.6 79705.5 lineto
stroke
newpath
84545.6 71646.6 moveto
84762.8 71429.4 lineto
stroke
newpath
84762.8 71646.6 moveto
84545.6 71429.4 lineto
stroke
newpath
84545.6 68887.9 moveto
84762.8 68670.6 lineto
stroke
newpath
84762.8 68887.9 moveto
84545.6 68670.6 lineto
stroke
newpath
84545.6 66129.1 moveto
84762.8 65911.9 lineto
stroke
newpath
84762.8 66129.1 moveto
84545.6 65911.9 lineto
stroke
newpath
84545.6 63370.4 moveto
84762.8 63153.2 lineto
stroke
newpath
84762.8 63370.4 moveto
84545.6 63153.2 lineto
stroke
newpath
84545.6 60611.7 moveto
84762.8 60394.5 lineto
stroke
newpath
84762.8 60611.7 moveto
84545.6 60394.5 lineto
stroke
newpath
84545.6 57853 moveto
84762.8 57635.8 lineto
stroke
newpath
84762.8 57853 moveto
84545.6 57635.8 lineto
stroke
newpath
84545.6 55094.3 moveto
84762.8 54877 lineto
stroke
newpath
84762.8 55094.3 moveto
84545.6 54877 lineto
stroke
newpath
84545.6 52335.5 moveto
84762.8 52118.3 lineto
stroke
newpath
84762.8 52335.5 moveto
84545.6 52118.3 lineto
stroke
newpath
84545.6 49576.8 moveto
84762.8 49359.6 lineto
stroke
newpath
84762.8 49576.8 moveto
84545.6 49359.6 lineto
stroke
newpath
84545.6 46818.1 moveto
84762.8 46600.9 lineto
stroke
newpath
84762.8 46818.1 moveto
84545.6 46600.9 lineto
stroke
newpath
84545.6 44059.4 moveto
84762.8 43842.1 lineto
stroke
newpath
84762.8 44059.4 moveto
84545.6 43842.1 lineto
stroke
newpath
84545.6 36059.1 moveto
84762.8 35841.8 lineto
stroke
newpath
84762.8 36059.1 moveto
84545.6 35841.8 lineto
stroke
newpath
87304.3 79922.8 moveto
87521.5 79705.5 lineto
stroke
newpath
87521.5 79922.8 moveto
87304.3 79705.5 lineto
stroke
newpath
87304.3 77164 moveto
87521.5 76946.8 lineto
stroke
newpath
87521.5 77164 moveto
87304.3 76946.8 lineto
stroke
newpath
87304.3 74405.3 moveto
87521.5 74188.1 lineto
stroke
newpath
87521.5 74405.3 moveto
87304.3 74188.1 lineto
stroke
newpath
87304.3 71646.6 moveto
87521.5 71429.4 lineto
stroke
newpath
87521.5 71646.6 moveto
87304.3 71429.4 lineto
stroke
newpath
87304.3 68887.9 moveto
87521.5 68670.6 lineto
stroke
newpath
87521.5 68887.9 moveto
87304.3 68670.6 lineto
stroke
newpath
87304.3 66129.1 moveto
87521.5 65911.9 lineto
stroke
newpath
87521.5 66129.1 moveto
87304.3 65911.9 lineto
stroke
newpath
87304.3 63370.4 moveto
87521.5 63153.2 lineto
stroke
newpath
87521.5 63370.4 moveto
87304.3 63153.2 lineto
stroke
newpath
87304.3 60611.7 moveto
87521.5 60394.5 lineto
stroke
newpath
87521.5 60611.7 moveto
87304.3 60394.5 lineto
stroke
newpath
87304.3 57853 moveto
87521.5 57635.8 lineto
stroke
newpath
87521.5 57853 moveto
87304.3 57635.8 lineto
stroke
newpath
87304.3 55094.3 moveto
87521.5 54877 lineto
stroke
newpath
87521.5 55094.3 moveto
87304.3 54877 lineto
stroke
newpath
87304.3 52335.5 moveto
87521.5 52118.3 lineto
stroke
newpath
87521.5 52335.5 moveto
87304.3 52118.3 lineto
stroke
newpath
87304.3 49576.8 moveto
87521.5 49359.6 lineto
stroke
newpath
87521.5 49576.8 moveto
87304.3 49359.6 lineto
stroke
newpath
87304.3 46818.1 moveto
87521.5 46600.9 lineto
stroke
newpath
87521.5 46818.1 moveto
87304.3 46600.9 lineto
stroke
newpath
87304.3 44059.4 moveto
87521.5 43842.1 lineto
stroke
newpath
87521.5 44059.4 moveto
87304.3 43842.1 lineto
stroke
newpath
87304.3 41300.6 moveto
87521.5 41083.4 lineto
stroke
newpath
87521.5 41300.6 moveto
87304.3 41083.4 lineto
stroke
newpath
87304.3 38541.9 moveto
87521.5 38324.7 lineto
stroke
newpath
87521.5 38541.9 moveto
87304.3 38324.7 lineto
stroke
newpath
87304.3 36059.1 moveto
87521.5 35841.8 lineto
stroke
newpath
87521.5 36059.1 moveto
87304.3 35841.8 lineto
stroke
43.4445 setlinewidth
33591.1 52612.1 217.222 cir0
35329.1 52639.6 217.222 cir0
35356.7 62433.1 217.222 cir0
37922.3 62405.5 217.222 cir0
37922.3 52639.6 217.222 cir0
40515.5 62405.5 217.222 cir0
40543.1 52667.2 217.222 cir0
43107.8 52723.5 217.222 cir0
43136.3 62405.5 217.222 cir0
44846.7 52832.7 217.222 cir0
47466.6 62406.6 217.222 cir0
53425.4 53275.2 217.222 cir0
56102.3 53081 217.222 cir0
63771.5 45991.1 217.222 cir0
76958.2 46101.5 217.222 cir0
108.611 setlinewidth
newpath
32680.7 77404.3 moveto
32680.7 76318.2 lineto
stroke
newpath
32137.7 76861.2 moveto
33223.8 76861.2 lineto
stroke
newpath
32680.7 74645.6 moveto
32680.7 73559.5 lineto
stroke
newpath
32137.7 74102.5 moveto
33223.8 74102.5 lineto
stroke
newpath
32680.7 41540.9 moveto
32680.7 40454.8 lineto
stroke
newpath
32137.7 40997.8 moveto
33223.8 40997.8 lineto
stroke
newpath
32680.7 38782.2 moveto
32680.7 37696 lineto
stroke
newpath
32137.7 38239.1 moveto
33223.8 38239.1 lineto
stroke
newpath
35439.4 77404.3 moveto
35439.4 76318.2 lineto
stroke
newpath
34896.4 76861.2 moveto
35982.5 76861.2 lineto
stroke
newpath
35439.4 74645.6 moveto
35439.4 73559.5 lineto
stroke
newpath
34896.4 74102.5 moveto
35982.5 74102.5 lineto
stroke
newpath
35439.4 41540.9 moveto
35439.4 40454.8 lineto
stroke
newpath
34896.4 40997.8 moveto
35982.5 40997.8 lineto
stroke
newpath
35439.4 38782.2 moveto
35439.4 37696 lineto
stroke
newpath
34896.4 38239.1 moveto
35982.5 38239.1 lineto
stroke
newpath
38198.2 77404.3 moveto
38198.2 76318.2 lineto
stroke
newpath
37655.1 76861.2 moveto
38741.2 76861.2 lineto
stroke
newpath
38198.2 74645.6 moveto
38198.2 73559.5 lineto
stroke
newpath
37655.1 74102.5 moveto
38741.2 74102.5 lineto
stroke
newpath
38198.2 41540.9 moveto
38198.2 40454.8 lineto
stroke
newpath
37655.1 40997.8 moveto
38741.2 40997.8 lineto
stroke
newpath
38198.2 38782.2 moveto
38198.2 37696 lineto
stroke
newpath
37655.1 38239.1 moveto
38741.2 38239.1 lineto
stroke
newpath
40956.9 77404.3 moveto
40956.9 76318.2 lineto
stroke
newpath
40413.8 76861.2 moveto
41499.9 76861.2 lineto
stroke
newpath
40956.9 74645.6 moveto
40956.9 73559.5 lineto
stroke
newpath
40413.8 74102.5 moveto
41499.9 74102.5 lineto
stroke
newpath
40956.9 41540.9 moveto
40956.9 40454.8 lineto
stroke
newpath
40413.8 40997.8 moveto
41499.9 40997.8 lineto
stroke
newpath
40956.9 38782.2 moveto
40956.9 37696 lineto
stroke
newpath
40413.8 38239.1 moveto
41499.9 38239.1 lineto
stroke
newpath
43715.6 77404.3 moveto
43715.6 76318.2 lineto
stroke
newpath
43172.5 76861.2 moveto
44258.7 76861.2 lineto
stroke
newpath
43715.6 74645.6 moveto
43715.6 73559.5 lineto
stroke
newpath
43172.5 74102.5 moveto
44258.7 74102.5 lineto
stroke
newpath
43715.6 41540.9 moveto
43715.6 40454.8 lineto
stroke
newpath
43172.5 40997.8 moveto
44258.7 40997.8 lineto
stroke
newpath
43715.6 38782.2 moveto
43715.6 37696 lineto
stroke
newpath
43172.5 38239.1 moveto
44258.7 38239.1 lineto
stroke
newpath
46474.3 77404.3 moveto
46474.3 76318.2 lineto
stroke
newpath
45931.3 76861.2 moveto
47017.4 76861.2 lineto
stroke
newpath
46474.3 74645.6 moveto
46474.3 73559.5 lineto
stroke
newpath
45931.3 74102.5 moveto
47017.4 74102.5 lineto
stroke
newpath
46474.3 41540.9 moveto
46474.3 40454.8 lineto
stroke
newpath
45931.3 40997.8 moveto
47017.4 40997.8 lineto
stroke
newpath
46474.3 38782.2 moveto
46474.3 37696 lineto
stroke
newpath
45931.3 38239.1 moveto
47017.4 38239.1 lineto
stroke
newpath
49233.1 77404.3 moveto
49233.1 76318.2 lineto
stroke
newpath
48690 76861.2 moveto
49776.1 76861.2 lineto
stroke
newpath
49233.1 74645.6 moveto
49233.1 73559.5 lineto
stroke
newpath
48690 74102.5 moveto
49776.1 74102.5 lineto
stroke
newpath
49233.1 41540.9 moveto
49233.1 40454.8 lineto
stroke
newpath
48690 40997.8 moveto
49776.1 40997.8 lineto
stroke
newpath
49233.1 38782.2 moveto
49233.1 37696 lineto
stroke
newpath
48690 38239.1 moveto
49776.1 38239.1 lineto
stroke
newpath
51991.8 77404.3 moveto
51991.8 76318.2 lineto
stroke
newpath
51448.7 76861.2 moveto
52534.8 76861.2 lineto
stroke
newpath
51991.8 74645.6 moveto
51991.8 73559.5 lineto
stroke
newpath
51448.7 74102.5 moveto
52534.8 74102.5 lineto
stroke
newpath
51991.8 41540.9 moveto
51991.8 40454.8 lineto
stroke
newpath
51448.7 40997.8 moveto
52534.8 40997.8 lineto
stroke
newpath
51991.8 38782.2 moveto
51991.8 37696 lineto
stroke
newpath
51448.7 38239.1 moveto
52534.8 38239.1 lineto
stroke
newpath
54750.5 77404.3 moveto
54750.5 76318.2 lineto
stroke
newpath
54207.4 76861.2 moveto
55293.6 76861.2 lineto
stroke
newpath
54750.5 74645.6 moveto
54750.5 73559.5 lineto
stroke
newpath
54207.4 74102.5 moveto
55293.6 74102.5 lineto
stroke
newpath
54750.5 41540.9 moveto
54750.5 40454.8 lineto
stroke
newpath
54207.4 40997.8 moveto
55293.6 40997.8 lineto
stroke
newpath
54750.5 38782.2 moveto
54750.5 37696 lineto
stroke
newpath
54207.4 38239.1 moveto
55293.6 38239.1 lineto
stroke
newpath
57509.2 77404.3 moveto
57509.2 76318.2 lineto
stroke
newpath
56966.2 76861.2 moveto
58052.3 76861.2 lineto
stroke
newpath
57509.2 74645.6 moveto
57509.2 73559.5 lineto
stroke
newpath
56966.2 74102.5 moveto
58052.3 74102.5 lineto
stroke
newpath
57509.2 41540.9 moveto
57509.2 40454.8 lineto
stroke
newpath
56966.2 40997.8 moveto
58052.3 40997.8 lineto
stroke
newpath
57509.2 38782.2 moveto
57509.2 37696 lineto
stroke
newpath
56966.2 38239.1 moveto
58052.3 38239.1 lineto
stroke
newpath
60267.9 77404.3 moveto
60267.9 76318.2 lineto
stroke
newpath
59724.9 76861.2 moveto
60811 76861.2 lineto
stroke
newpath
60267.9 74645.6 moveto
60267.9 73559.5 lineto
stroke
newpath
59724.9 74102.5 moveto
60811 74102.5 lineto
stroke
newpath
60267.9 41540.9 moveto
60267.9 40454.8 lineto
stroke
newpath
59724.9 40997.8 moveto
60811 40997.8 lineto
stroke
newpath
60267.9 38782.2 moveto
60267.9 37696 lineto
stroke
newpath
59724.9 38239.1 moveto
60811 38239.1 lineto
stroke
newpath
63026.7 77404.3 moveto
63026.7 76318.2 lineto
stroke
newpath
62483.6 76861.2 moveto
63569.7 76861.2 lineto
stroke
newpath
63026.7 74645.6 moveto
63026.7 73559.5 lineto
stroke
newpath
62483.6 74102.5 moveto
63569.7 74102.5 lineto
stroke
newpath
63026.7 41540.9 moveto
63026.7 40454.8 lineto
stroke
newpath
62483.6 40997.8 moveto
63569.7 40997.8 lineto
stroke
newpath
63026.7 38782.2 moveto
63026.7 37696 lineto
stroke
newpath
62483.6 38239.1 moveto
63569.7 38239.1 lineto
stroke
newpath
65785.4 77404.3 moveto
65785.4 76318.2 lineto
stroke
newpath
65242.3 76861.2 moveto
66328.4 76861.2 lineto
stroke
newpath
65785.4 74645.6 moveto
65785.4 73559.5 lineto
stroke
newpath
65242.3 74102.5 moveto
66328.4 74102.5 lineto
stroke
newpath
65785.4 41540.9 moveto
65785.4 40454.8 lineto
stroke
newpath
65242.3 40997.8 moveto
66328.4 40997.8 lineto
stroke
newpath
65785.4 38782.2 moveto
65785.4 37696 lineto
stroke
newpath
65242.3 38239.1 moveto
66328.4 38239.1 lineto
stroke
newpath
68544.1 77404.3 moveto
68544.1 76318.2 lineto
stroke
newpath
68001.1 76861.2 moveto
69087.2 76861.2 lineto
stroke
newpath
68544.1 74645.6 moveto
68544.1 73559.5 lineto
stroke
newpath
68001.1 74102.5 moveto
69087.2 74102.5 lineto
stroke
newpath
68544.1 41540.9 moveto
68544.1 40454.8 lineto
stroke
newpath
68001.1 40997.8 moveto
69087.2 40997.8 lineto
stroke
newpath
68544.1 38782.2 moveto
68544.1 37696 lineto
stroke
newpath
68001.1 38239.1 moveto
69087.2 38239.1 lineto
stroke
newpath
71302.8 77404.3 moveto
71302.8 76318.2 lineto
stroke
newpath
70759.8 76861.2 moveto
71845.9 76861.2 lineto
stroke
newpath
71302.8 74645.6 moveto
71302.8 73559.5 lineto
stroke
newpath
70759.8 74102.5 moveto
71845.9 74102.5 lineto
stroke
newpath
71302.8 41540.9 moveto
71302.8 40454.8 lineto
stroke
newpath
70759.8 40997.8 moveto
71845.9 40997.8 lineto
stroke
newpath
71302.8 38782.2 moveto
71302.8 37696 lineto
stroke
newpath
70759.8 38239.1 moveto
71845.9 38239.1 lineto
stroke
newpath
74061.6 77404.3 moveto
74061.6 76318.2 lineto
stroke
newpath
73518.5 76861.2 moveto
74604.6 76861.2 lineto
stroke
newpath
74061.6 74645.6 moveto
74061.6 73559.5 lineto
stroke
newpath
73518.5 74102.5 moveto
74604.6 74102.5 lineto
stroke
newpath
74061.6 41540.9 moveto
74061.6 40454.8 lineto
stroke
newpath
73518.5 40997.8 moveto
74604.6 40997.8 lineto
stroke
newpath
74061.6 38782.2 moveto
74061.6 37696 lineto
stroke
newpath
73518.5 38239.1 moveto
74604.6 38239.1 lineto
stroke
newpath
76820.3 77404.3 moveto
76820.3 76318.2 lineto
stroke
newpath
76277.2 76861.2 moveto
77363.3 76861.2 lineto
stroke
newpath
76820.3 74645.6 moveto
76820.3 73559.5 lineto
stroke
newpath
76277.2 74102.5 moveto
77363.3 74102.5 lineto
stroke
newpath
76820.3 41540.9 moveto
76820.3 40454.8 lineto
stroke
newpath
76277.2 40997.8 moveto
77363.3 40997.8 lineto
stroke
newpath
76820.3 38782.2 moveto
76820.3 37696 lineto
stroke
newpath
76277.2 38239.1 moveto
77363.3 38239.1 lineto
stroke
newpath
79579 77404.3 moveto
79579 76318.2 lineto
stroke
newpath
79036 76861.2 moveto
80122.1 76861.2 lineto
stroke
newpath
79579 74645.6 moveto
79579 73559.5 lineto
stroke
newpath
79036 74102.5 moveto
80122.1 74102.5 lineto
stroke
newpath
79579 41540.9 moveto
79579 40454.8 lineto
stroke
newpath
79036 40997.8 moveto
80122.1 40997.8 lineto
stroke
newpath
79579 38782.2 moveto
79579 37696 lineto
stroke
newpath
79036 38239.1 moveto
80122.1 38239.1 lineto
stroke
newpath
82337.7 77404.3 moveto
82337.7 76318.2 lineto
stroke
newpath
81794.7 76861.2 moveto
82880.8 76861.2 lineto
stroke
newpath
82337.7 74645.6 moveto
82337.7 73559.5 lineto
stroke
newpath
81794.7 74102.5 moveto
82880.8 74102.5 lineto
stroke
newpath
82337.7 41540.9 moveto
82337.7 40454.8 lineto
stroke
newpath
81794.7 40997.8 moveto
82880.8 40997.8 lineto
stroke
newpath
82337.7 38782.2 moveto
82337.7 37696 lineto
stroke
newpath
81794.7 38239.1 moveto
82880.8 38239.1 lineto
stroke
newpath
85096.5 77404.3 moveto
85096.5 76318.2 lineto
stroke
newpath
84553.4 76861.2 moveto
85639.5 76861.2 lineto
stroke
newpath
85096.5 74645.6 moveto
85096.5 73559.5 lineto
stroke
newpath
84553.4 74102.5 moveto
85639.5 74102.5 lineto
stroke
newpath
85096.5 41540.9 moveto
85096.5 40454.8 lineto
stroke
newpath
84553.4 40997.8 moveto
85639.5 40997.8 lineto
stroke
newpath
85096.5 38782.2 moveto
85096.5 37696 lineto
stroke
newpath
84553.4 38239.1 moveto
85639.5 38239.1 lineto
stroke
217.222 setlinewidth
78.7398 setlinewidth
0 0 0 setrgbcolor
0 0 0 setrgbcolor
newpath
29584 33818.2 moveto
29584 34605.6 lineto
29771.5 34605.6 lineto
29884 34568.1 lineto
29959 34493.1 lineto
29996.5 34418.1 lineto
30034 34268.1 lineto
30034 34155.6 lineto
29996.5 34005.6 lineto
29959 33930.6 lineto
29884 33855.7 lineto
29771.5 33818.2 lineto
29584 33818.2 lineto
stroke
newpath
30371.4 33818.2 moveto
30371.4 34343.1 lineto
stroke
newpath
30371.4 34193.1 moveto
30408.9 34268.1 lineto
30446.4 34305.6 lineto
30521.4 34343.1 lineto
30596.4 34343.1 lineto
stroke
newpath
30858.9 33818.2 moveto
30858.9 34343.1 lineto
stroke
newpath
30858.9 34605.6 moveto
30821.4 34568.1 lineto
30858.9 34530.6 lineto
30896.4 34568.1 lineto
30858.9 34605.6 lineto
30858.9 34530.6 lineto
stroke
newpath
31346.3 33818.2 moveto
31271.3 33855.7 lineto
31233.8 33930.6 lineto
31233.8 34605.6 lineto
stroke
newpath
31758.8 33818.2 moveto
31683.8 33855.7 lineto
31646.3 33930.6 lineto
31646.3 34605.6 lineto
stroke
newpath
32658.6 33818.2 moveto
32658.6 34605.6 lineto
32921.1 34043.1 lineto
33183.6 34605.6 lineto
33183.6 33818.2 lineto
stroke
newpath
33896 33818.2 moveto
33896 34230.6 lineto
33858.5 34305.6 lineto
33783.5 34343.1 lineto
33633.5 34343.1 lineto
33558.5 34305.6 lineto
stroke
newpath
33896 33855.7 moveto
33821 33818.2 lineto
33633.5 33818.2 lineto
33558.5 33855.7 lineto
33521 33930.6 lineto
33521 34005.6 lineto
33558.5 34080.6 lineto
33633.5 34118.1 lineto
33821 34118.1 lineto
33896 34155.6 lineto
stroke
newpath
34270.9 34343.1 moveto
34270.9 33555.7 lineto
stroke
newpath
34270.9 34305.6 moveto
34345.9 34343.1 lineto
34495.9 34343.1 lineto
34570.9 34305.6 lineto
34608.4 34268.1 lineto
34645.9 34193.1 lineto
34645.9 33968.1 lineto
34608.4 33893.1 lineto
34570.9 33855.7 lineto
34495.9 33818.2 lineto
34345.9 33818.2 lineto
34270.9 33855.7 lineto
stroke
newpath
34983.4 33893.1 moveto
35020.8 33855.7 lineto
34983.4 33818.2 lineto
34945.9 33855.7 lineto
34983.4 33893.1 lineto
34983.4 33818.2 lineto
stroke
newpath
34983.4 34305.6 moveto
35020.8 34268.1 lineto
34983.4 34230.6 lineto
34945.9 34268.1 lineto
34983.4 34305.6 lineto
34983.4 34230.6 lineto
stroke
21.7222 setlinewidth
newpath
28352.6 32629.4 moveto
28569.8 32412.2 lineto
stroke
newpath
28569.8 32629.4 moveto
28352.6 32412.2 lineto
stroke
217.222 setlinewidth
78.7398 setlinewidth
0 0 0 setrgbcolor
0 0 0 setrgbcolor
newpath
29734 32952 moveto
29809 32952 lineto
29884 32914.5 lineto
29921.5 32877 lineto
29959 32802 lineto
29996.5 32652.1 lineto
29996.5 32464.6 lineto
29959 32314.6 lineto
29921.5 32239.6 lineto
29884 32202.1 lineto
29809 32164.6 lineto
29734 32164.6 lineto
29659 32202.1 lineto
29621.5 32239.6 lineto
29584 32314.6 lineto
29546.5 32464.6 lineto
29546.5 32652.1 lineto
29584 32802 lineto
29621.5 32877 lineto
29659 32914.5 lineto
29734 32952 lineto
stroke
newpath
30333.9 32239.6 moveto
30371.4 32202.1 lineto
30333.9 32164.6 lineto
30296.4 32202.1 lineto
30333.9 32239.6 lineto
30333.9 32164.6 lineto
stroke
newpath
30671.4 32877 moveto
30708.9 32914.5 lineto
30783.9 32952 lineto
30971.4 32952 lineto
31046.3 32914.5 lineto
31083.8 32877 lineto
31121.3 32802 lineto
31121.3 32727 lineto
31083.8 32614.6 lineto
30633.9 32164.6 lineto
31121.3 32164.6 lineto
stroke
newpath
31608.8 32952 moveto
31683.8 32952 lineto
31758.8 32914.5 lineto
31796.3 32877 lineto
31833.7 32802 lineto
31871.2 32652.1 lineto
31871.2 32464.6 lineto
31833.7 32314.6 lineto
31796.3 32239.6 lineto
31758.8 32202.1 lineto
31683.8 32164.6 lineto
31608.8 32164.6 lineto
31533.8 32202.1 lineto
31496.3 32239.6 lineto
31458.8 32314.6 lineto
31421.3 32464.6 lineto
31421.3 32652.1 lineto
31458.8 32802 lineto
31496.3 32877 lineto
31533.8 32914.5 lineto
31608.8 32952 lineto
stroke
newpath
32358.7 32952 moveto
32433.7 32952 lineto
32508.7 32914.5 lineto
32546.2 32877 lineto
32583.7 32802 lineto
32621.1 32652.1 lineto
32621.1 32464.6 lineto
32583.7 32314.6 lineto
32546.2 32239.6 lineto
32508.7 32202.1 lineto
32433.7 32164.6 lineto
32358.7 32164.6 lineto
32283.7 32202.1 lineto
32246.2 32239.6 lineto
32208.7 32314.6 lineto
32171.2 32464.6 lineto
32171.2 32652.1 lineto
32208.7 32802 lineto
32246.2 32877 lineto
32283.7 32914.5 lineto
32358.7 32952 lineto
stroke
newpath
32958.6 32164.6 moveto
32958.6 32689.5 lineto
stroke
newpath
32958.6 32614.6 moveto
32996.1 32652.1 lineto
33071.1 32689.5 lineto
33183.6 32689.5 lineto
33258.6 32652.1 lineto
33296.1 32577.1 lineto
33296.1 32164.6 lineto
stroke
newpath
33296.1 32577.1 moveto
33333.6 32652.1 lineto
33408.5 32689.5 lineto
33521 32689.5 lineto
33596 32652.1 lineto
33633.5 32577.1 lineto
33633.5 32164.6 lineto
stroke
newpath
34008.5 32164.6 moveto
34008.5 32689.5 lineto
stroke
newpath
34008.5 32614.6 moveto
34046 32652.1 lineto
34121 32689.5 lineto
34233.4 32689.5 lineto
34308.4 32652.1 lineto
34345.9 32577.1 lineto
34345.9 32164.6 lineto
stroke
newpath
34345.9 32577.1 moveto
34383.4 32652.1 lineto
34458.4 32689.5 lineto
34570.9 32689.5 lineto
34645.9 32652.1 lineto
34683.4 32577.1 lineto
34683.4 32164.6 lineto
stroke
newpath
36220.7 32989.5 moveto
35545.8 31977.1 lineto
stroke
newpath
37233.1 32952 moveto
37308.1 32952 lineto
37383.1 32914.5 lineto
37420.5 32877 lineto
37458 32802 lineto
37495.5 32652.1 lineto
37495.5 32464.6 lineto
37458 32314.6 lineto
37420.5 32239.6 lineto
37383.1 32202.1 lineto
37308.1 32164.6 lineto
37233.1 32164.6 lineto
37158.1 32202.1 lineto
37120.6 32239.6 lineto
37083.1 32314.6 lineto
37045.6 32464.6 lineto
37045.6 32652.1 lineto
37083.1 32802 lineto
37120.6 32877 lineto
37158.1 32914.5 lineto
37233.1 32952 lineto
stroke
newpath
37833 32239.6 moveto
37870.5 32202.1 lineto
37833 32164.6 lineto
37795.5 32202.1 lineto
37833 32239.6 lineto
37833 32164.6 lineto
stroke
newpath
38357.9 32952 moveto
38432.9 32952 lineto
38507.9 32914.5 lineto
38545.4 32877 lineto
38582.9 32802 lineto
38620.4 32652.1 lineto
38620.4 32464.6 lineto
38582.9 32314.6 lineto
38545.4 32239.6 lineto
38507.9 32202.1 lineto
38432.9 32164.6 lineto
38357.9 32164.6 lineto
38282.9 32202.1 lineto
38245.4 32239.6 lineto
38207.9 32314.6 lineto
38170.5 32464.6 lineto
38170.5 32652.1 lineto
38207.9 32802 lineto
38245.4 32877 lineto
38282.9 32914.5 lineto
38357.9 32952 lineto
stroke
newpath
39107.8 32952 moveto
39182.8 32952 lineto
39257.8 32914.5 lineto
39295.3 32877 lineto
39332.8 32802 lineto
39370.3 32652.1 lineto
39370.3 32464.6 lineto
39332.8 32314.6 lineto
39295.3 32239.6 lineto
39257.8 32202.1 lineto
39182.8 32164.6 lineto
39107.8 32164.6 lineto
39032.8 32202.1 lineto
38995.3 32239.6 lineto
38957.9 32314.6 lineto
38920.4 32464.6 lineto
38920.4 32652.1 lineto
38957.9 32802 lineto
38995.3 32877 lineto
39032.8 32914.5 lineto
39107.8 32952 lineto
stroke
newpath
39632.8 32952 moveto
40157.7 32952 lineto
39820.2 32164.6 lineto
stroke
newpath
40495.2 32164.6 moveto
40645.1 32164.6 lineto
40720.1 32202.1 lineto
40757.6 32239.6 lineto
40832.6 32352.1 lineto
40870.1 32502.1 lineto
40870.1 32802 lineto
40832.6 32877 lineto
40795.1 32914.5 lineto
40720.1 32952 lineto
40570.2 32952 lineto
40495.2 32914.5 lineto
40457.7 32877 lineto
40420.2 32802 lineto
40420.2 32614.6 lineto
40457.7 32539.6 lineto
40495.2 32502.1 lineto
40570.2 32464.6 lineto
40720.1 32464.6 lineto
40795.1 32502.1 lineto
40832.6 32539.6 lineto
40870.1 32614.6 lineto
stroke
newpath
41170.1 32952 moveto
41170.1 32802 lineto
stroke
newpath
41470 32952 moveto
41470 32802 lineto
stroke
newpath
42632.4 31864.7 moveto
42594.9 31902.1 lineto
42519.9 32014.6 lineto
42482.4 32089.6 lineto
42444.9 32202.1 lineto
42407.4 32389.6 lineto
42407.4 32539.6 lineto
42444.9 32727 lineto
42482.4 32839.5 lineto
42519.9 32914.5 lineto
42594.9 33027 lineto
42632.4 33064.5 lineto
stroke
newpath
42894.9 32877 moveto
42932.4 32914.5 lineto
43007.3 32952 lineto
43194.8 32952 lineto
43269.8 32914.5 lineto
43307.3 32877 lineto
43344.8 32802 lineto
43344.8 32727 lineto
43307.3 32614.6 lineto
42857.4 32164.6 lineto
43344.8 32164.6 lineto
stroke
newpath
43832.2 32952 moveto
43907.2 32952 lineto
43982.2 32914.5 lineto
44019.7 32877 lineto
44057.2 32802 lineto
44094.7 32652.1 lineto
44094.7 32464.6 lineto
44057.2 32314.6 lineto
44019.7 32239.6 lineto
43982.2 32202.1 lineto
43907.2 32164.6 lineto
43832.2 32164.6 lineto
43757.3 32202.1 lineto
43719.8 32239.6 lineto
43682.3 32314.6 lineto
43644.8 32464.6 lineto
43644.8 32652.1 lineto
43682.3 32802 lineto
43719.8 32877 lineto
43757.3 32914.5 lineto
43832.2 32952 lineto
stroke
newpath
44769.6 32952 moveto
44619.6 32952 lineto
44544.7 32914.5 lineto
44507.2 32877 lineto
44432.2 32764.5 lineto
44394.7 32614.6 lineto
44394.7 32314.6 lineto
44432.2 32239.6 lineto
44469.7 32202.1 lineto
44544.7 32164.6 lineto
44694.6 32164.6 lineto
44769.6 32202.1 lineto
44807.1 32239.6 lineto
44844.6 32314.6 lineto
44844.6 32502.1 lineto
44807.1 32577.1 lineto
44769.6 32614.6 lineto
44694.6 32652.1 lineto
44544.7 32652.1 lineto
44469.7 32614.6 lineto
44432.2 32577.1 lineto
44394.7 32502.1 lineto
stroke
newpath
45782 32164.6 moveto
45782 32952 lineto
stroke
newpath
46119.5 32164.6 moveto
46119.5 32577.1 lineto
46082 32652.1 lineto
46007 32689.5 lineto
45894.5 32689.5 lineto
45819.5 32652.1 lineto
45782 32614.6 lineto
stroke
newpath
46606.9 32164.6 moveto
46531.9 32202.1 lineto
46494.4 32239.6 lineto
46456.9 32314.6 lineto
46456.9 32539.6 lineto
46494.4 32614.6 lineto
46531.9 32652.1 lineto
46606.9 32689.5 lineto
46719.4 32689.5 lineto
46794.4 32652.1 lineto
46831.9 32614.6 lineto
46869.4 32539.6 lineto
46869.4 32314.6 lineto
46831.9 32239.6 lineto
46794.4 32202.1 lineto
46719.4 32164.6 lineto
46606.9 32164.6 lineto
stroke
newpath
47319.3 32164.6 moveto
47244.3 32202.1 lineto
47206.8 32277.1 lineto
47206.8 32952 lineto
stroke
newpath
47919.2 32202.1 moveto
47844.2 32164.6 lineto
47694.3 32164.6 lineto
47619.3 32202.1 lineto
47581.8 32277.1 lineto
47581.8 32577.1 lineto
47619.3 32652.1 lineto
47694.3 32689.5 lineto
47844.2 32689.5 lineto
47919.2 32652.1 lineto
47956.7 32577.1 lineto
47956.7 32502.1 lineto
47581.8 32427.1 lineto
stroke
newpath
48256.7 32202.1 moveto
48331.7 32164.6 lineto
48481.7 32164.6 lineto
48556.7 32202.1 lineto
48594.1 32277.1 lineto
48594.1 32314.6 lineto
48556.7 32389.6 lineto
48481.7 32427.1 lineto
48369.2 32427.1 lineto
48294.2 32464.6 lineto
48256.7 32539.6 lineto
48256.7 32577.1 lineto
48294.2 32652.1 lineto
48369.2 32689.5 lineto
48481.7 32689.5 lineto
48556.7 32652.1 lineto
stroke
newpath
48856.6 31864.7 moveto
48894.1 31902.1 lineto
48969.1 32014.6 lineto
49006.6 32089.6 lineto
49044.1 32202.1 lineto
49081.6 32389.6 lineto
49081.6 32539.6 lineto
49044.1 32727 lineto
49006.6 32839.5 lineto
48969.1 32914.5 lineto
48894.1 33027 lineto
48856.6 33064.5 lineto
stroke
43.4445 setlinewidth
28352.6 31481.4 217.222 cir0
217.222 setlinewidth
78.7398 setlinewidth
0 0 0 setrgbcolor
0 0 0 setrgbcolor
newpath
29734 31912.6 moveto
29809 31912.6 lineto
29884 31875.2 lineto
29921.5 31837.7 lineto
29959 31762.7 lineto
29996.5 31612.7 lineto
29996.5 31425.2 lineto
29959 31275.2 lineto
29921.5 31200.2 lineto
29884 31162.7 lineto
29809 31125.2 lineto
29734 31125.2 lineto
29659 31162.7 lineto
29621.5 31200.2 lineto
29584 31275.2 lineto
29546.5 31425.2 lineto
29546.5 31612.7 lineto
29584 31762.7 lineto
29621.5 31837.7 lineto
29659 31875.2 lineto
29734 31912.6 lineto
stroke
newpath
30333.9 31200.2 moveto
30371.4 31162.7 lineto
30333.9 31125.2 lineto
30296.4 31162.7 lineto
30333.9 31200.2 lineto
30333.9 31125.2 lineto
stroke
newpath
31046.3 31650.2 moveto
31046.3 31125.2 lineto
stroke
newpath
30858.9 31950.1 moveto
30671.4 31387.7 lineto
31158.8 31387.7 lineto
stroke
newpath
31608.8 31912.6 moveto
31683.8 31912.6 lineto
31758.8 31875.2 lineto
31796.3 31837.7 lineto
31833.7 31762.7 lineto
31871.2 31612.7 lineto
31871.2 31425.2 lineto
31833.7 31275.2 lineto
31796.3 31200.2 lineto
31758.8 31162.7 lineto
31683.8 31125.2 lineto
31608.8 31125.2 lineto
31533.8 31162.7 lineto
31496.3 31200.2 lineto
31458.8 31275.2 lineto
31421.3 31425.2 lineto
31421.3 31612.7 lineto
31458.8 31762.7 lineto
31496.3 31837.7 lineto
31533.8 31875.2 lineto
31608.8 31912.6 lineto
stroke
newpath
32358.7 31912.6 moveto
32433.7 31912.6 lineto
32508.7 31875.2 lineto
32546.2 31837.7 lineto
32583.7 31762.7 lineto
32621.1 31612.7 lineto
32621.1 31425.2 lineto
32583.7 31275.2 lineto
32546.2 31200.2 lineto
32508.7 31162.7 lineto
32433.7 31125.2 lineto
32358.7 31125.2 lineto
32283.7 31162.7 lineto
32246.2 31200.2 lineto
32208.7 31275.2 lineto
32171.2 31425.2 lineto
32171.2 31612.7 lineto
32208.7 31762.7 lineto
32246.2 31837.7 lineto
32283.7 31875.2 lineto
32358.7 31912.6 lineto
stroke
newpath
32958.6 31125.2 moveto
32958.6 31650.2 lineto
stroke
newpath
32958.6 31575.2 moveto
32996.1 31612.7 lineto
33071.1 31650.2 lineto
33183.6 31650.2 lineto
33258.6 31612.7 lineto
33296.1 31537.7 lineto
33296.1 31125.2 lineto
stroke
newpath
33296.1 31537.7 moveto
33333.6 31612.7 lineto
33408.5 31650.2 lineto
33521 31650.2 lineto
33596 31612.7 lineto
33633.5 31537.7 lineto
33633.5 31125.2 lineto
stroke
newpath
34008.5 31125.2 moveto
34008.5 31650.2 lineto
stroke
newpath
34008.5 31575.2 moveto
34046 31612.7 lineto
34121 31650.2 lineto
34233.4 31650.2 lineto
34308.4 31612.7 lineto
34345.9 31537.7 lineto
34345.9 31125.2 lineto
stroke
newpath
34345.9 31537.7 moveto
34383.4 31612.7 lineto
34458.4 31650.2 lineto
34570.9 31650.2 lineto
34645.9 31612.7 lineto
34683.4 31537.7 lineto
34683.4 31125.2 lineto
stroke
newpath
36220.7 31950.1 moveto
35545.8 30937.8 lineto
stroke
newpath
37233.1 31912.6 moveto
37308.1 31912.6 lineto
37383.1 31875.2 lineto
37420.5 31837.7 lineto
37458 31762.7 lineto
37495.5 31612.7 lineto
37495.5 31425.2 lineto
37458 31275.2 lineto
37420.5 31200.2 lineto
37383.1 31162.7 lineto
37308.1 31125.2 lineto
37233.1 31125.2 lineto
37158.1 31162.7 lineto
37120.6 31200.2 lineto
37083.1 31275.2 lineto
37045.6 31425.2 lineto
37045.6 31612.7 lineto
37083.1 31762.7 lineto
37120.6 31837.7 lineto
37158.1 31875.2 lineto
37233.1 31912.6 lineto
stroke
newpath
37833 31200.2 moveto
37870.5 31162.7 lineto
37833 31125.2 lineto
37795.5 31162.7 lineto
37833 31200.2 lineto
37833 31125.2 lineto
stroke
newpath
38357.9 31912.6 moveto
38432.9 31912.6 lineto
38507.9 31875.2 lineto
38545.4 31837.7 lineto
38582.9 31762.7 lineto
38620.4 31612.7 lineto
38620.4 31425.2 lineto
38582.9 31275.2 lineto
38545.4 31200.2 lineto
38507.9 31162.7 lineto
38432.9 31125.2 lineto
38357.9 31125.2 lineto
38282.9 31162.7 lineto
38245.4 31200.2 lineto
38207.9 31275.2 lineto
38170.5 31425.2 lineto
38170.5 31612.7 lineto
38207.9 31762.7 lineto
38245.4 31837.7 lineto
38282.9 31875.2 lineto
38357.9 31912.6 lineto
stroke
newpath
39370.3 31125.2 moveto
38920.4 31125.2 lineto
stroke
newpath
39145.3 31125.2 moveto
39145.3 31912.6 lineto
39070.3 31800.2 lineto
38995.3 31725.2 lineto
38920.4 31687.7 lineto
stroke
newpath
40082.7 31912.6 moveto
39707.8 31912.6 lineto
39670.3 31537.7 lineto
39707.8 31575.2 lineto
39782.8 31612.7 lineto
39970.2 31612.7 lineto
40045.2 31575.2 lineto
40082.7 31537.7 lineto
40120.2 31462.7 lineto
40120.2 31275.2 lineto
40082.7 31200.2 lineto
40045.2 31162.7 lineto
39970.2 31125.2 lineto
39782.8 31125.2 lineto
39707.8 31162.7 lineto
39670.3 31200.2 lineto
stroke
newpath
40382.7 31912.6 moveto
40907.6 31912.6 lineto
40570.2 31125.2 lineto
stroke
newpath
41170.1 31912.6 moveto
41170.1 31762.7 lineto
stroke
newpath
41470 31912.6 moveto
41470 31762.7 lineto
stroke
newpath
42632.4 30825.3 moveto
42594.9 30862.8 lineto
42519.9 30975.3 lineto
42482.4 31050.3 lineto
42444.9 31162.7 lineto
42407.4 31350.2 lineto
42407.4 31500.2 lineto
42444.9 31687.7 lineto
42482.4 31800.2 lineto
42519.9 31875.2 lineto
42594.9 31987.6 lineto
42632.4 32025.1 lineto
stroke
newpath
43344.8 31125.2 moveto
42894.9 31125.2 lineto
stroke
newpath
43119.8 31125.2 moveto
43119.8 31912.6 lineto
43044.8 31800.2 lineto
42969.9 31725.2 lineto
42894.9 31687.7 lineto
stroke
newpath
44057.2 31912.6 moveto
43682.3 31912.6 lineto
43644.8 31537.7 lineto
43682.3 31575.2 lineto
43757.3 31612.7 lineto
43944.7 31612.7 lineto
44019.7 31575.2 lineto
44057.2 31537.7 lineto
44094.7 31462.7 lineto
44094.7 31275.2 lineto
44057.2 31200.2 lineto
44019.7 31162.7 lineto
43944.7 31125.2 lineto
43757.3 31125.2 lineto
43682.3 31162.7 lineto
43644.8 31200.2 lineto
stroke
newpath
45032.1 31125.2 moveto
45032.1 31912.6 lineto
stroke
newpath
45369.6 31125.2 moveto
45369.6 31537.7 lineto
45332.1 31612.7 lineto
45257.1 31650.2 lineto
45144.6 31650.2 lineto
45069.6 31612.7 lineto
45032.1 31575.2 lineto
stroke
newpath
45857 31125.2 moveto
45782 31162.7 lineto
45744.5 31200.2 lineto
45707 31275.2 lineto
45707 31500.2 lineto
45744.5 31575.2 lineto
45782 31612.7 lineto
45857 31650.2 lineto
45969.5 31650.2 lineto
46044.5 31612.7 lineto
46082 31575.2 lineto
46119.5 31500.2 lineto
46119.5 31275.2 lineto
46082 31200.2 lineto
46044.5 31162.7 lineto
45969.5 31125.2 lineto
45857 31125.2 lineto
stroke
newpath
46569.4 31125.2 moveto
46494.4 31162.7 lineto
46456.9 31237.7 lineto
46456.9 31912.6 lineto
stroke
newpath
47169.3 31162.7 moveto
47094.3 31125.2 lineto
46944.4 31125.2 lineto
46869.4 31162.7 lineto
46831.9 31237.7 lineto
46831.9 31537.7 lineto
46869.4 31612.7 lineto
46944.4 31650.2 lineto
47094.3 31650.2 lineto
47169.3 31612.7 lineto
47206.8 31537.7 lineto
47206.8 31462.7 lineto
46831.9 31387.7 lineto
stroke
newpath
47506.8 31162.7 moveto
47581.8 31125.2 lineto
47731.8 31125.2 lineto
47806.7 31162.7 lineto
47844.2 31237.7 lineto
47844.2 31275.2 lineto
47806.7 31350.2 lineto
47731.8 31387.7 lineto
47619.3 31387.7 lineto
47544.3 31425.2 lineto
47506.8 31500.2 lineto
47506.8 31537.7 lineto
47544.3 31612.7 lineto
47619.3 31650.2 lineto
47731.8 31650.2 lineto
47806.7 31612.7 lineto
stroke
newpath
48106.7 30825.3 moveto
48144.2 30862.8 lineto
48219.2 30975.3 lineto
48256.7 31050.3 lineto
48294.2 31162.7 lineto
48331.7 31350.2 lineto
48331.7 31500.2 lineto
48294.2 31687.7 lineto
48256.7 31800.2 lineto
48219.2 31875.2 lineto
48144.2 31987.6 lineto
48106.7 32025.1 lineto
stroke
newpath
28176.1 30835.8 moveto
28176.1 30048.4 lineto
stroke
newpath
27782.4 30442.1 moveto
28569.8 30442.1 lineto
stroke
217.222 setlinewidth
78.7398 setlinewidth
0 0 0 setrgbcolor
0 0 0 setrgbcolor
newpath
29996.5 30085.9 moveto
29546.5 30085.9 lineto
stroke
newpath
29771.5 30085.9 moveto
29771.5 30873.3 lineto
29696.5 30760.8 lineto
29621.5 30685.8 lineto
29546.5 30648.3 lineto
stroke
newpath
30333.9 30160.9 moveto
30371.4 30123.4 lineto
30333.9 30085.9 lineto
30296.4 30123.4 lineto
30333.9 30160.9 lineto
30333.9 30085.9 lineto
stroke
newpath
30858.9 30873.3 moveto
30933.9 30873.3 lineto
31008.8 30835.8 lineto
31046.3 30798.3 lineto
31083.8 30723.3 lineto
31121.3 30573.3 lineto
31121.3 30385.8 lineto
31083.8 30235.9 lineto
31046.3 30160.9 lineto
31008.8 30123.4 lineto
30933.9 30085.9 lineto
30858.9 30085.9 lineto
30783.9 30123.4 lineto
30746.4 30160.9 lineto
30708.9 30235.9 lineto
30671.4 30385.8 lineto
30671.4 30573.3 lineto
30708.9 30723.3 lineto
30746.4 30798.3 lineto
30783.9 30835.8 lineto
30858.9 30873.3 lineto
stroke
newpath
31608.8 30873.3 moveto
31683.8 30873.3 lineto
31758.8 30835.8 lineto
31796.3 30798.3 lineto
31833.7 30723.3 lineto
31871.2 30573.3 lineto
31871.2 30385.8 lineto
31833.7 30235.9 lineto
31796.3 30160.9 lineto
31758.8 30123.4 lineto
31683.8 30085.9 lineto
31608.8 30085.9 lineto
31533.8 30123.4 lineto
31496.3 30160.9 lineto
31458.8 30235.9 lineto
31421.3 30385.8 lineto
31421.3 30573.3 lineto
31458.8 30723.3 lineto
31496.3 30798.3 lineto
31533.8 30835.8 lineto
31608.8 30873.3 lineto
stroke
newpath
32358.7 30873.3 moveto
32433.7 30873.3 lineto
32508.7 30835.8 lineto
32546.2 30798.3 lineto
32583.7 30723.3 lineto
32621.1 30573.3 lineto
32621.1 30385.8 lineto
32583.7 30235.9 lineto
32546.2 30160.9 lineto
32508.7 30123.4 lineto
32433.7 30085.9 lineto
32358.7 30085.9 lineto
32283.7 30123.4 lineto
32246.2 30160.9 lineto
32208.7 30235.9 lineto
32171.2 30385.8 lineto
32171.2 30573.3 lineto
32208.7 30723.3 lineto
32246.2 30798.3 lineto
32283.7 30835.8 lineto
32358.7 30873.3 lineto
stroke
newpath
32958.6 30085.9 moveto
32958.6 30610.8 lineto
stroke
newpath
32958.6 30535.8 moveto
32996.1 30573.3 lineto
33071.1 30610.8 lineto
33183.6 30610.8 lineto
33258.6 30573.3 lineto
33296.1 30498.3 lineto
33296.1 30085.9 lineto
stroke
newpath
33296.1 30498.3 moveto
33333.6 30573.3 lineto
33408.5 30610.8 lineto
33521 30610.8 lineto
33596 30573.3 lineto
33633.5 30498.3 lineto
33633.5 30085.9 lineto
stroke
newpath
34008.5 30085.9 moveto
34008.5 30610.8 lineto
stroke
newpath
34008.5 30535.8 moveto
34046 30573.3 lineto
34121 30610.8 lineto
34233.4 30610.8 lineto
34308.4 30573.3 lineto
34345.9 30498.3 lineto
34345.9 30085.9 lineto
stroke
newpath
34345.9 30498.3 moveto
34383.4 30573.3 lineto
34458.4 30610.8 lineto
34570.9 30610.8 lineto
34645.9 30573.3 lineto
34683.4 30498.3 lineto
34683.4 30085.9 lineto
stroke
newpath
36220.7 30910.8 moveto
35545.8 29898.4 lineto
stroke
newpath
37233.1 30873.3 moveto
37308.1 30873.3 lineto
37383.1 30835.8 lineto
37420.5 30798.3 lineto
37458 30723.3 lineto
37495.5 30573.3 lineto
37495.5 30385.8 lineto
37458 30235.9 lineto
37420.5 30160.9 lineto
37383.1 30123.4 lineto
37308.1 30085.9 lineto
37233.1 30085.9 lineto
37158.1 30123.4 lineto
37120.6 30160.9 lineto
37083.1 30235.9 lineto
37045.6 30385.8 lineto
37045.6 30573.3 lineto
37083.1 30723.3 lineto
37120.6 30798.3 lineto
37158.1 30835.8 lineto
37233.1 30873.3 lineto
stroke
newpath
37833 30160.9 moveto
37870.5 30123.4 lineto
37833 30085.9 lineto
37795.5 30123.4 lineto
37833 30160.9 lineto
37833 30085.9 lineto
stroke
newpath
38357.9 30873.3 moveto
38432.9 30873.3 lineto
38507.9 30835.8 lineto
38545.4 30798.3 lineto
38582.9 30723.3 lineto
38620.4 30573.3 lineto
38620.4 30385.8 lineto
38582.9 30235.9 lineto
38545.4 30160.9 lineto
38507.9 30123.4 lineto
38432.9 30085.9 lineto
38357.9 30085.9 lineto
38282.9 30123.4 lineto
38245.4 30160.9 lineto
38207.9 30235.9 lineto
38170.5 30385.8 lineto
38170.5 30573.3 lineto
38207.9 30723.3 lineto
38245.4 30798.3 lineto
38282.9 30835.8 lineto
38357.9 30873.3 lineto
stroke
newpath
38882.9 30873.3 moveto
39370.3 30873.3 lineto
39107.8 30573.3 lineto
39220.3 30573.3 lineto
39295.3 30535.8 lineto
39332.8 30498.3 lineto
39370.3 30423.3 lineto
39370.3 30235.9 lineto
39332.8 30160.9 lineto
39295.3 30123.4 lineto
39220.3 30085.9 lineto
38995.3 30085.9 lineto
38920.4 30123.4 lineto
38882.9 30160.9 lineto
stroke
newpath
39745.3 30085.9 moveto
39895.2 30085.9 lineto
39970.2 30123.4 lineto
40007.7 30160.9 lineto
40082.7 30273.4 lineto
40120.2 30423.3 lineto
40120.2 30723.3 lineto
40082.7 30798.3 lineto
40045.2 30835.8 lineto
39970.2 30873.3 lineto
39820.2 30873.3 lineto
39745.3 30835.8 lineto
39707.8 30798.3 lineto
39670.3 30723.3 lineto
39670.3 30535.8 lineto
39707.8 30460.8 lineto
39745.3 30423.3 lineto
39820.2 30385.8 lineto
39970.2 30385.8 lineto
40045.2 30423.3 lineto
40082.7 30460.8 lineto
40120.2 30535.8 lineto
stroke
newpath
40795.1 30610.8 moveto
40795.1 30085.9 lineto
stroke
newpath
40607.6 30910.8 moveto
40420.2 30348.3 lineto
40907.6 30348.3 lineto
stroke
newpath
41170.1 30873.3 moveto
41170.1 30723.3 lineto
stroke
newpath
41470 30873.3 moveto
41470 30723.3 lineto
stroke
newpath
42632.4 29785.9 moveto
42594.9 29823.4 lineto
42519.9 29935.9 lineto
42482.4 30010.9 lineto
42444.9 30123.4 lineto
42407.4 30310.8 lineto
42407.4 30460.8 lineto
42444.9 30648.3 lineto
42482.4 30760.8 lineto
42519.9 30835.8 lineto
42594.9 30948.3 lineto
42632.4 30985.8 lineto
stroke
newpath
43044.8 30535.8 moveto
42969.9 30573.3 lineto
42932.4 30610.8 lineto
42894.9 30685.8 lineto
42894.9 30723.3 lineto
42932.4 30798.3 lineto
42969.9 30835.8 lineto
43044.8 30873.3 lineto
43194.8 30873.3 lineto
43269.8 30835.8 lineto
43307.3 30798.3 lineto
43344.8 30723.3 lineto
43344.8 30685.8 lineto
43307.3 30610.8 lineto
43269.8 30573.3 lineto
43194.8 30535.8 lineto
43044.8 30535.8 lineto
42969.9 30498.3 lineto
42932.4 30460.8 lineto
42894.9 30385.8 lineto
42894.9 30235.9 lineto
42932.4 30160.9 lineto
42969.9 30123.4 lineto
43044.8 30085.9 lineto
43194.8 30085.9 lineto
43269.8 30123.4 lineto
43307.3 30160.9 lineto
43344.8 30235.9 lineto
43344.8 30385.8 lineto
43307.3 30460.8 lineto
43269.8 30498.3 lineto
43194.8 30535.8 lineto
stroke
newpath
43832.2 30873.3 moveto
43907.2 30873.3 lineto
43982.2 30835.8 lineto
44019.7 30798.3 lineto
44057.2 30723.3 lineto
44094.7 30573.3 lineto
44094.7 30385.8 lineto
44057.2 30235.9 lineto
44019.7 30160.9 lineto
43982.2 30123.4 lineto
43907.2 30085.9 lineto
43832.2 30085.9 lineto
43757.3 30123.4 lineto
43719.8 30160.9 lineto
43682.3 30235.9 lineto
43644.8 30385.8 lineto
43644.8 30573.3 lineto
43682.3 30723.3 lineto
43719.8 30798.3 lineto
43757.3 30835.8 lineto
43832.2 30873.3 lineto
stroke
newpath
45032.1 30085.9 moveto
45032.1 30873.3 lineto
stroke
newpath
45369.6 30085.9 moveto
45369.6 30498.3 lineto
45332.1 30573.3 lineto
45257.1 30610.8 lineto
45144.6 30610.8 lineto
45069.6 30573.3 lineto
45032.1 30535.8 lineto
stroke
newpath
45857 30085.9 moveto
45782 30123.4 lineto
45744.5 30160.9 lineto
45707 30235.9 lineto
45707 30460.8 lineto
45744.5 30535.8 lineto
45782 30573.3 lineto
45857 30610.8 lineto
45969.5 30610.8 lineto
46044.5 30573.3 lineto
46082 30535.8 lineto
46119.5 30460.8 lineto
46119.5 30235.9 lineto
46082 30160.9 lineto
46044.5 30123.4 lineto
45969.5 30085.9 lineto
45857 30085.9 lineto
stroke
newpath
46569.4 30085.9 moveto
46494.4 30123.4 lineto
46456.9 30198.4 lineto
46456.9 30873.3 lineto
stroke
newpath
47169.3 30123.4 moveto
47094.3 30085.9 lineto
46944.4 30085.9 lineto
46869.4 30123.4 lineto
46831.9 30198.4 lineto
46831.9 30498.3 lineto
46869.4 30573.3 lineto
46944.4 30610.8 lineto
47094.3 30610.8 lineto
47169.3 30573.3 lineto
47206.8 30498.3 lineto
47206.8 30423.3 lineto
46831.9 30348.3 lineto
stroke
newpath
47506.8 30123.4 moveto
47581.8 30085.9 lineto
47731.8 30085.9 lineto
47806.7 30123.4 lineto
47844.2 30198.4 lineto
47844.2 30235.9 lineto
47806.7 30310.8 lineto
47731.8 30348.3 lineto
47619.3 30348.3 lineto
47544.3 30385.8 lineto
47506.8 30460.8 lineto
47506.8 30498.3 lineto
47544.3 30573.3 lineto
47619.3 30610.8 lineto
47731.8 30610.8 lineto
47806.7 30573.3 lineto
stroke
newpath
48106.7 29785.9 moveto
48144.2 29823.4 lineto
48219.2 29935.9 lineto
48256.7 30010.9 lineto
48294.2 30123.4 lineto
48331.7 30310.8 lineto
48331.7 30460.8 lineto
48294.2 30648.3 lineto
48256.7 30760.8 lineto
48219.2 30835.8 lineto
48144.2 30948.3 lineto
48106.7 30985.8 lineto
stroke
showpage
grestore
%%EOF
