%!PS-Adobe-3.0
%%Creator: PCBNEW
%%CreationDate: Mon Mar 28 13:24:39 2022
%%Title: ()
%%Pages: 1
%%PageOrder: Ascend
%%BoundingBox: 0 0 596 842
%%DocumentMedia: A4 595 842 0 () ()
%%Orientation: Landscape
%%EndComments
%%BeginProlog
/line { newpath moveto lineto stroke } bind def
/cir0 { newpath 0 360 arc stroke } bind def
/cir1 { newpath 0 360 arc gsave fill grestore stroke } bind def
/cir2 { newpath 0 360 arc gsave fill grestore stroke } bind def
/arc0 { newpath arc stroke } bind def
/arc1 { newpath 4 index 4 index moveto arc closepath gsave fill
    grestore stroke } bind def
/arc2 { newpath 4 index 4 index moveto arc closepath gsave fill
    grestore stroke } bind def
/poly0 { stroke } bind def
/poly1 { closepath gsave fill grestore stroke } bind def
/poly2 { closepath gsave fill grestore stroke } bind def
/rect0 { rectstroke } bind def
/rect1 { rectfill } bind def
/rect2 { rectfill } bind def
/linemode0 { 0 setlinecap 0 setlinejoin 0 setlinewidth } bind def
/linemode1 { 1 setlinecap 1 setlinejoin } bind def
/dashedline { [200] 100 setdash } bind def
/solidline { [] 0 setdash } bind def
/phantomshow { moveto
    /KicadFont findfont 0.000001 scalefont setfont
    show } bind def
/textshow { gsave
    findfont exch scalefont setfont concat 1 scale 0 0 moveto show
    } bind def
/reencodefont {
  findfont dup length dict begin
  { 1 index /FID ne
    { def }
    { pop pop } ifelse
  } forall
  /Encoding ISOLatin1Encoding def
  currentdict
  end } bind def
/KicadFont /Helvetica reencodefont definefont pop
/KicadFont-Bold /Helvetica-Bold reencodefont definefont pop
/KicadFont-Oblique /Helvetica-Oblique reencodefont definefont pop
/KicadFont-BoldOblique /Helvetica-BoldOblique reencodefont definefont pop
%%EndProlog
%%Page: 1 1
%%BeginPageSetup
gsave
0.0072 0.0072 scale
linemode1
82680 0 translate 90 rotate
217.222 setlinewidth
%%EndPageSetup
0 0 0 setrgbcolor
54.3056 setlinewidth
newpath
88333.1 35067.7 moveto
28596.9 35067.7 lineto
stroke
0 0 0 setrgbcolor
newpath
28596.9 35067.7 moveto
28596.9 80684.3 lineto
stroke
0 0 0 setrgbcolor
newpath
88333.1 80684.3 moveto
88333.1 35067.7 lineto
stroke
0 0 0 setrgbcolor
newpath
28596.9 80684.3 moveto
88333.1 80684.3 lineto
stroke
217.222 setlinewidth
78.7398 setlinewidth
0 0 0 setrgbcolor
0 0 0 setrgbcolor
newpath
29584 33818.2 moveto
29584 34605.6 lineto
29771.5 34605.6 lineto
29884 34568.1 lineto
29959 34493.1 lineto
29996.5 34418.1 lineto
30034 34268.1 lineto
30034 34155.6 lineto
29996.5 34005.6 lineto
29959 33930.6 lineto
29884 33855.7 lineto
29771.5 33818.2 lineto
29584 33818.2 lineto
stroke
newpath
30371.4 33818.2 moveto
30371.4 34343.1 lineto
stroke
newpath
30371.4 34193.1 moveto
30408.9 34268.1 lineto
30446.4 34305.6 lineto
30521.4 34343.1 lineto
30596.4 34343.1 lineto
stroke
newpath
30858.9 33818.2 moveto
30858.9 34343.1 lineto
stroke
newpath
30858.9 34605.6 moveto
30821.4 34568.1 lineto
30858.9 34530.6 lineto
30896.4 34568.1 lineto
30858.9 34605.6 lineto
30858.9 34530.6 lineto
stroke
newpath
31346.3 33818.2 moveto
31271.3 33855.7 lineto
31233.8 33930.6 lineto
31233.8 34605.6 lineto
stroke
newpath
31758.8 33818.2 moveto
31683.8 33855.7 lineto
31646.3 33930.6 lineto
31646.3 34605.6 lineto
stroke
newpath
32658.6 33818.2 moveto
32658.6 34605.6 lineto
32921.1 34043.1 lineto
33183.6 34605.6 lineto
33183.6 33818.2 lineto
stroke
newpath
33896 33818.2 moveto
33896 34230.6 lineto
33858.5 34305.6 lineto
33783.5 34343.1 lineto
33633.5 34343.1 lineto
33558.5 34305.6 lineto
stroke
newpath
33896 33855.7 moveto
33821 33818.2 lineto
33633.5 33818.2 lineto
33558.5 33855.7 lineto
33521 33930.6 lineto
33521 34005.6 lineto
33558.5 34080.6 lineto
33633.5 34118.1 lineto
33821 34118.1 lineto
33896 34155.6 lineto
stroke
newpath
34270.9 34343.1 moveto
34270.9 33555.7 lineto
stroke
newpath
34270.9 34305.6 moveto
34345.9 34343.1 lineto
34495.9 34343.1 lineto
34570.9 34305.6 lineto
34608.4 34268.1 lineto
34645.9 34193.1 lineto
34645.9 33968.1 lineto
34608.4 33893.1 lineto
34570.9 33855.7 lineto
34495.9 33818.2 lineto
34345.9 33818.2 lineto
34270.9 33855.7 lineto
stroke
newpath
34983.4 33893.1 moveto
35020.8 33855.7 lineto
34983.4 33818.2 lineto
34945.9 33855.7 lineto
34983.4 33893.1 lineto
34983.4 33818.2 lineto
stroke
newpath
34983.4 34305.6 moveto
35020.8 34268.1 lineto
34983.4 34230.6 lineto
34945.9 34268.1 lineto
34983.4 34305.6 lineto
34983.4 34230.6 lineto
stroke
showpage
grestore
%%EOF
